 (                                                                                       (                                        
 )\ )     (  (       (  (                     )     (      )                      (      )\ )                      )              
(()/(  (  )\ )\ ) (  )\ )\   )     (       ( /(     )\  ( /(    )               ( )\    (()/(      (  (    (    ( /((             
 /(_))))\((_|()/( )\((_|(_) (     ))\ (    )\())  (((_) )\())( /(  (     (     ))((_|    /(_))(    )\))(  ))\(  )\())\  (   (     
(_))_/((_)_  /(_)|(_)_  _   )\  '/((_))\ )(_))/   )\___((_)\ )(_)) )\ )  )\ ) /((_) )\  (_))  )\ )((_))\ /((_)\(_))((_) )\  )\ )  
| |_(_))(| |(_) _|(_) || |_((_))(_)) _(_/(| |_   ((/ __| |(_|(_)_ _(_/( _(_/((_))| ((_) |_ _|_(_/( (()(_|_))((_) |_ (_)((_)_(_/(  
| __| || | | |  _|| | || | '  \() -_) ' \))  _|   | (__| ' \/ _` | ' \)) ' \)) -_) (_-<  | || ' \)) _` |/ -_|_-<  _|| / _ \ ' \)) 
|_|  \_,_|_| |_|  |_|_||_|_|_|_|\___|_||_| \__|    \___|_||_\__,_|_||_||_||_|\___|_/__/ |___|_||_|\__, |\___/__/\__||_\___/_||_|  
                                                                                                  |___/                           